waveform.vcd
$version Generated by VerilatedVcd $end
$timescale 1s $end

 $scope module TOP $end
  $var wire  1 ` clk $end
  $var wire 32 b r[0] [31:0] $end
  $var wire 32 l r[10] [31:0] $end
  $var wire 32 m r[11] [31:0] $end
  $var wire 32 n r[12] [31:0] $end
  $var wire 32 o r[13] [31:0] $end
  $var wire 32 p r[14] [31:0] $end
  $var wire 32 q r[15] [31:0] $end
  $var wire 32 r r[16] [31:0] $end
  $var wire 32 s r[17] [31:0] $end
  $var wire 32 t r[18] [31:0] $end
  $var wire 32 u r[19] [31:0] $end
  $var wire 32 c r[1] [31:0] $end
  $var wire 32 v r[20] [31:0] $end
  $var wire 32 w r[21] [31:0] $end
  $var wire 32 x r[22] [31:0] $end
  $var wire 32 y r[23] [31:0] $end
  $var wire 32 z r[24] [31:0] $end
  $var wire 32 { r[25] [31:0] $end
  $var wire 32 | r[26] [31:0] $end
  $var wire 32 } r[27] [31:0] $end
  $var wire 32 ~ r[28] [31:0] $end
  $var wire 32 !! r[29] [31:0] $end
  $var wire 32 d r[2] [31:0] $end
  $var wire 32 "! r[30] [31:0] $end
  $var wire 32 #! r[31] [31:0] $end
  $var wire 32 e r[3] [31:0] $end
  $var wire 32 f r[4] [31:0] $end
  $var wire 32 g r[5] [31:0] $end
  $var wire 32 h r[6] [31:0] $end
  $var wire 32 i r[7] [31:0] $end
  $var wire 32 j r[8] [31:0] $end
  $var wire 32 k r[9] [31:0] $end
  $var wire  1 a start $end
  $scope module SingleCycleCPU $end
   $var wire  4 . ALUCtl [3:0] $end
   $var wire  2 + ALUOp [1:0] $end
   $var wire 32 ] ALUOut [31:0] $end
   $var wire  1 - ALUSrc $end
   $var wire 32 \ ALU_B [31:0] $end
   $var wire  1 Y BrEq $end
   $var wire  1 Z BrLT $end
   $var wire  2 [ PCSel [1:0] $end
   $var wire 32 $ PC_plus_4 [31:0] $end
   $var wire 32 / branch_target [31:0] $end
   $var wire  1 ` clk $end
   $var wire 32 # current_PC [31:0] $end
   $var wire 32 & imm [31:0] $end
   $var wire 32 ' imm_shifted [31:0] $end
   $var wire 32 % instruction [31:0] $end
   $var wire 32 _ jalr_target [31:0] $end
   $var wire 32 %! memData [31:0] $end
   $var wire  1 T memRead $end
   $var wire  1 , memWrite $end
   $var wire  2 * memtoReg [1:0] $end
   $var wire 32 V next_PC [31:0] $end
   $var wire 32 b r[0] [31:0] $end
   $var wire 32 l r[10] [31:0] $end
   $var wire 32 m r[11] [31:0] $end
   $var wire 32 n r[12] [31:0] $end
   $var wire 32 o r[13] [31:0] $end
   $var wire 32 p r[14] [31:0] $end
   $var wire 32 q r[15] [31:0] $end
   $var wire 32 r r[16] [31:0] $end
   $var wire 32 s r[17] [31:0] $end
   $var wire 32 t r[18] [31:0] $end
   $var wire 32 u r[19] [31:0] $end
   $var wire 32 c r[1] [31:0] $end
   $var wire 32 v r[20] [31:0] $end
   $var wire 32 w r[21] [31:0] $end
   $var wire 32 x r[22] [31:0] $end
   $var wire 32 y r[23] [31:0] $end
   $var wire 32 z r[24] [31:0] $end
   $var wire 32 { r[25] [31:0] $end
   $var wire 32 | r[26] [31:0] $end
   $var wire 32 } r[27] [31:0] $end
   $var wire 32 ~ r[28] [31:0] $end
   $var wire 32 !! r[29] [31:0] $end
   $var wire 32 d r[2] [31:0] $end
   $var wire 32 "! r[30] [31:0] $end
   $var wire 32 #! r[31] [31:0] $end
   $var wire 32 e r[3] [31:0] $end
   $var wire 32 f r[4] [31:0] $end
   $var wire 32 g r[5] [31:0] $end
   $var wire 32 h r[6] [31:0] $end
   $var wire 32 i r[7] [31:0] $end
   $var wire 32 j r[8] [31:0] $end
   $var wire 32 k r[9] [31:0] $end
   $var wire  5 S rd [4:0] $end
   $var wire 32 W readData1 [31:0] $end
   $var wire 32 X readData2 [31:0] $end
   $var wire  1 U regWrite $end
   $var wire  5 ( rs1 [4:0] $end
   $var wire  5 ) rs2 [4:0] $end
   $var wire  1 a rst_n $end
   $var wire  1 a start $end
   $var wire 32 $! writeBackData [31:0] $end
   $var wire  1 ^ zero $end
   $scope module m_ALU $end
    $var wire 32 W A [31:0] $end
    $var wire 32 ] ALUOut [31:0] $end
    $var wire  4 . ALUctl [3:0] $end
    $var wire 32 \ B [31:0] $end
    $var wire  1 ^ zero $end
   $upscope $end
   $scope module m_ALUCtrl $end
    $var wire  4 . ALUCtl [3:0] $end
    $var wire  2 + ALUOp [1:0] $end
    $var wire  3 1 funct3 [2:0] $end
    $var wire  1 0 funct7 $end
   $upscope $end
   $scope module m_Adder_1 $end
    $var wire 32 # a [31:0] $end
    $var wire 32 &! b [31:0] $end
    $var wire 32 $ sum [31:0] $end
   $upscope $end
   $scope module m_Adder_2 $end
    $var wire 32 # a [31:0] $end
    $var wire 32 ' b [31:0] $end
    $var wire 32 / sum [31:0] $end
   $upscope $end
   $scope module m_BranchComp $end
    $var wire 32 W A [31:0] $end
    $var wire 32 X B [31:0] $end
    $var wire  1 Y BrEq $end
    $var wire  1 Z BrLT $end
   $upscope $end
   $scope module m_Control $end
    $var wire  2 + ALUOp [1:0] $end
    $var wire  1 - ALUSrc $end
    $var wire  1 Y BrEq $end
    $var wire  1 Z BrLT $end
    $var wire  2 [ PCSel [1:0] $end
    $var wire  3 1 funct3 [2:0] $end
    $var wire  1 T memRead $end
    $var wire  1 , memWrite $end
    $var wire  2 * memtoReg [1:0] $end
    $var wire  7 2 opcode [6:0] $end
    $var wire  1 U regWrite $end
   $upscope $end
   $scope module m_DataMemory $end
    $var wire 32 ] address [31:0] $end
    $var wire  1 ` clk $end
    $var wire  1 T memRead $end
    $var wire  1 , memWrite $end
    $var wire 32 %! readData [31:0] $end
    $var wire  1 a rst $end
    $var wire 32 X writeData [31:0] $end
   $upscope $end
   $scope module m_ImmGen $end
    $var wire 32 & imm [31:0] $end
    $var wire 32 % inst [31:0] $end
    $var wire  7 2 opcode [6:0] $end
   $upscope $end
   $scope module m_InstMem $end
    $var wire 32 % inst [31:0] $end
    $var wire 32 # readAddr [31:0] $end
   $upscope $end
   $scope module m_Mux_ALU $end
    $var wire 32 \ out [31:0] $end
    $var wire 32 X s0 [31:0] $end
    $var wire 32 & s1 [31:0] $end
    $var wire  1 - sel $end
    $var wire 32 '! size [31:0] $end
   $upscope $end
   $scope module m_Mux_PC $end
    $var wire 32 V out [31:0] $end
    $var wire 32 $ s0 [31:0] $end
    $var wire 32 / s1 [31:0] $end
    $var wire 32 _ s2 [31:0] $end
    $var wire  2 [ sel [1:0] $end
    $var wire 32 '! size [31:0] $end
   $upscope $end
   $scope module m_Mux_WriteData $end
    $var wire 32 $! out [31:0] $end
    $var wire 32 ] s0 [31:0] $end
    $var wire 32 %! s1 [31:0] $end
    $var wire 32 $ s2 [31:0] $end
    $var wire  2 * sel [1:0] $end
    $var wire 32 '! size [31:0] $end
   $upscope $end
   $scope module m_PC $end
    $var wire  1 ` clk $end
    $var wire 32 V pc_i [31:0] $end
    $var wire 32 # pc_o [31:0] $end
    $var wire  1 a rst $end
   $upscope $end
   $scope module m_Register $end
    $var wire  1 ` clk $end
    $var wire 32 W readData1 [31:0] $end
    $var wire 32 X readData2 [31:0] $end
    $var wire  5 ( readReg1 [4:0] $end
    $var wire  5 ) readReg2 [4:0] $end
    $var wire  1 U regWrite $end
    $var wire 32 3 regs[0] [31:0] $end
    $var wire 32 = regs[10] [31:0] $end
    $var wire 32 > regs[11] [31:0] $end
    $var wire 32 ? regs[12] [31:0] $end
    $var wire 32 @ regs[13] [31:0] $end
    $var wire 32 A regs[14] [31:0] $end
    $var wire 32 B regs[15] [31:0] $end
    $var wire 32 C regs[16] [31:0] $end
    $var wire 32 D regs[17] [31:0] $end
    $var wire 32 E regs[18] [31:0] $end
    $var wire 32 F regs[19] [31:0] $end
    $var wire 32 4 regs[1] [31:0] $end
    $var wire 32 G regs[20] [31:0] $end
    $var wire 32 H regs[21] [31:0] $end
    $var wire 32 I regs[22] [31:0] $end
    $var wire 32 J regs[23] [31:0] $end
    $var wire 32 K regs[24] [31:0] $end
    $var wire 32 L regs[25] [31:0] $end
    $var wire 32 M regs[26] [31:0] $end
    $var wire 32 N regs[27] [31:0] $end
    $var wire 32 O regs[28] [31:0] $end
    $var wire 32 P regs[29] [31:0] $end
    $var wire 32 5 regs[2] [31:0] $end
    $var wire 32 Q regs[30] [31:0] $end
    $var wire 32 R regs[31] [31:0] $end
    $var wire 32 6 regs[3] [31:0] $end
    $var wire 32 7 regs[4] [31:0] $end
    $var wire 32 8 regs[5] [31:0] $end
    $var wire 32 9 regs[6] [31:0] $end
    $var wire 32 : regs[7] [31:0] $end
    $var wire 32 ; regs[8] [31:0] $end
    $var wire 32 < regs[9] [31:0] $end
    $var wire  1 a rst $end
    $var wire 32 $! writeData [31:0] $end
    $var wire  5 S writeReg [4:0] $end
   $upscope $end
   $scope module m_ShiftLeftOne $end
    $var wire 32 & i [31:0] $end
    $var wire 32 ' o [31:0] $end
   $upscope $end
  $upscope $end
 $upscope $end
$enddefinitions $end


#0
b00000000000000000000000000000000 #
b00000000000000000000000000000100 $
b00000001010000000000000010010011 %
b00000000000000000000000000010100 &
b00000000000000000000000000101000 '
b00000 (
b10100 )
b00 *
b11 +
0,
1-
b0010 .
b00000000000000000000000000101000 /
00
b000 1
b0010011 2
b00000000000000000000000000000000 3
b00000000000000000000000000000000 4
b00000000000000000000000000000000 5
b00000000000000000000000000000000 6
b00000000000000000000000000000000 7
b00000000000000000000000000000000 8
b00000000000000000000000000000000 9
b00000000000000000000000000000000 :
b00000000000000000000000000000000 ;
b00000000000000000000000000000000 <
b00000000000000000000000000000000 =
b00000000000000000000000000000000 >
b00000000000000000000000000000000 ?
b00000000000000000000000000000000 @
b00000000000000000000000000000000 A
b00000000000000000000000000000000 B
b00000000000000000000000000000000 C
b00000000000000000000000000000000 D
b00000000000000000000000000000000 E
b00000000000000000000000000000000 F
b00000000000000000000000000000000 G
b00000000000000000000000000000000 H
b00000000000000000000000000000000 I
b00000000000000000000000000000000 J
b00000000000000000000000000000000 K
b00000000000000000000000000000000 L
b00000000000000000000000000000000 M
b00000000000000000000000000000000 N
b00000000000000000000000000000000 O
b00000000000000000000000000000000 P
b00000000000000000000000000000000 Q
b00000000000000000000000000000000 R
b00001 S
0T
1U
b00000000000000000000000000000100 V
b00000000000000000000000000000000 W
b00000000000000000000000000000000 X
1Y
0Z
b00 [
b00000000000000000000000000010100 \
b00000000000000000000000000010100 ]
0^
b00000000000000000000000000010100 _
0`
1a
b00000000000000000000000000000000 b
b00000000000000000000000000000000 c
b00000000000000000000000000000000 d
b00000000000000000000000000000000 e
b00000000000000000000000000000000 f
b00000000000000000000000000000000 g
b00000000000000000000000000000000 h
b00000000000000000000000000000000 i
b00000000000000000000000000000000 j
b00000000000000000000000000000000 k
b00000000000000000000000000000000 l
b00000000000000000000000000000000 m
b00000000000000000000000000000000 n
b00000000000000000000000000000000 o
b00000000000000000000000000000000 p
b00000000000000000000000000000000 q
b00000000000000000000000000000000 r
b00000000000000000000000000000000 s
b00000000000000000000000000000000 t
b00000000000000000000000000000000 u
b00000000000000000000000000000000 v
b00000000000000000000000000000000 w
b00000000000000000000000000000000 x
b00000000000000000000000000000000 y
b00000000000000000000000000000000 z
b00000000000000000000000000000000 {
b00000000000000000000000000000000 |
b00000000000000000000000000000000 }
b00000000000000000000000000000000 ~
b00000000000000000000000000000000 !!
b00000000000000000000000000000000 "!
b00000000000000000000000000000000 #!
b00000000000000000000000000010100 $!
b00000000000000000000000000000000 %!
b00000000000000000000000000000100 &!
b00000000000000000000000000100000 '!
#1
b00000000000000000000000010000000 5
1`
0a
b00000000000000000000000010000000 d
#2
b00000000000000000000000000010100 4
0`
1a
b00000000000000000000000000010100 c
#3
b00000000000000000000000000000100 #
b00000000000000000000000000001000 $
b00000000000000001000001011100111 %
b00000000000000000000000000000000 &
b00000000000000000000000000000000 '
b00001 (
b00000 )
b10 *
b00 +
b00000000000000000000000000000100 /
b1100111 2
b00101 S
b00000000000000000000000000010100 V
b00000000000000000000000000010100 W
0Y
b10 [
b00000000000000000000000000000000 \
1`
b00000000000000000000000000001000 $!
#4
b00000000000000000000000000001000 8
0`
b00000000000000000000000000001000 g
#5
b00000000000000000000000000010100 #
b00000000000000000000000000011000 $
b00000000000000000000000000010011 %
b00000 (
b00 *
b11 +
b00000000000000000000000000010100 /
b0010011 2
b00000 S
b00000000000000000000000000011000 V
b00000000000000000000000000000000 W
1Y
b00 [
b00000000000000000000000000000000 ]
1^
b00000000000000000000000000000000 _
1`
b00000000000000000000000000000000 $!
#6
0`
#7
b00000000000000000000000000011000 #
b00000000000000000000000000011100 $
b00000000000000000000000000011000 /
b00000000000000000000000000011100 V
1`
#8
0`
#9
b00000000000000000000000000011100 #
b00000000000000000000000000100000 $
b00000000000000000000000000011100 /
b00000000000000000000000000100000 V
1`
#10
0`
#11
b00000000000000000000000000100000 #
b00000000000000000000000000100100 $
b00000000000000000000000000100000 /
b00000000000000000000000000100100 V
1`
#12
0`
#13
b00000000000000000000000000100100 #
b00000000000000000000000000101000 $
b00000111101100000000000100010011 %
b00000000000000000000000001111011 &
b00000000000000000000000011110110 '
b11011 )
b00000000000000000000000100011010 /
b00010 S
b00000000000000000000000000101000 V
b00000000000000000000000001111011 \
b00000000000000000000000001111011 ]
0^
b00000000000000000000000001111010 _
1`
b00000000000000000000000001111011 $!
#14
b00000000000000000000000001111011 5
0`
b00000000000000000000000001111011 d
#15
b00000000000000000000000000101000 #
b00000000000000000000000000101100 $
b00000000000000101000000001100111 %
b00000000000000000000000000000000 &
b00000000000000000000000000000000 '
b00101 (
b00000 )
b10 *
b00 +
b00000000000000000000000000101000 /
b1100111 2
b00000 S
b00000000000000000000000000001000 V
b00000000000000000000000000001000 W
0Y
b10 [
b00000000000000000000000000000000 \
b00000000000000000000000000001000 ]
b00000000000000000000000000001000 _
1`
b00000000000000000000000000101100 $!
#16
0`
#17
b00000000000000000000000000001000 #
b00000000000000000000000000001100 $
b00111110011100000000000110010011 %
b00000000000000000000001111100111 &
b00000000000000000000011111001110 '
b00000 (
b00111 )
b00 *
b11 +
b00000000000000000000011111010110 /
b0010011 2
b00011 S
b00000000000000000000000000001100 V
b00000000000000000000000000000000 W
1Y
b00 [
b00000000000000000000001111100111 \
b00000000000000000000001111100111 ]
b00000000000000000000001111100110 _
1`
b00000000000000000000001111100111 $!
#18
b00000000000000000000001111100111 6
0`
b00000000000000000000001111100111 e
#19
b00000000000000000000000000001100 #
b00000000000000000000000000010000 $
b00000000000000000000000001100011 %
b00000000000000000000000000000000 &
b00000000000000000000000000000000 '
b00000 )
b00 +
0-
b00000000000000000000000000001100 /
b1100011 2
b00000 S
0U
b01 [
b00000000000000000000000000000000 \
b00000000000000000000000000000000 ]
1^
b00000000000000000000000000000000 _
1`
b00000000000000000000000000000000 $!
