waveform.vcd
$version Generated by VerilatedVcd $end
$timescale 1s $end

 $scope module TOP $end
  $var wire  1 ` clk $end
  $var wire 32 b r[0] [31:0] $end
  $var wire 32 l r[10] [31:0] $end
  $var wire 32 m r[11] [31:0] $end
  $var wire 32 n r[12] [31:0] $end
  $var wire 32 o r[13] [31:0] $end
  $var wire 32 p r[14] [31:0] $end
  $var wire 32 q r[15] [31:0] $end
  $var wire 32 r r[16] [31:0] $end
  $var wire 32 s r[17] [31:0] $end
  $var wire 32 t r[18] [31:0] $end
  $var wire 32 u r[19] [31:0] $end
  $var wire 32 c r[1] [31:0] $end
  $var wire 32 v r[20] [31:0] $end
  $var wire 32 w r[21] [31:0] $end
  $var wire 32 x r[22] [31:0] $end
  $var wire 32 y r[23] [31:0] $end
  $var wire 32 z r[24] [31:0] $end
  $var wire 32 { r[25] [31:0] $end
  $var wire 32 | r[26] [31:0] $end
  $var wire 32 } r[27] [31:0] $end
  $var wire 32 ~ r[28] [31:0] $end
  $var wire 32 !! r[29] [31:0] $end
  $var wire 32 d r[2] [31:0] $end
  $var wire 32 "! r[30] [31:0] $end
  $var wire 32 #! r[31] [31:0] $end
  $var wire 32 e r[3] [31:0] $end
  $var wire 32 f r[4] [31:0] $end
  $var wire 32 g r[5] [31:0] $end
  $var wire 32 h r[6] [31:0] $end
  $var wire 32 i r[7] [31:0] $end
  $var wire 32 j r[8] [31:0] $end
  $var wire 32 k r[9] [31:0] $end
  $var wire  1 a start $end
  $scope module SingleCycleCPU $end
   $var wire  4 ) ALUCtl [3:0] $end
   $var wire  2 + ALUOp [1:0] $end
   $var wire 32 Z ALUOut [31:0] $end
   $var wire  1 - ALUSrc $end
   $var wire 32 Y ALU_B [31:0] $end
   $var wire  1 \ BrEq $end
   $var wire  1 ] BrLT $end
   $var wire  2 [ PCSel [1:0] $end
   $var wire 32 $ PC_plus_4 [31:0] $end
   $var wire 32 ( branch_target [31:0] $end
   $var wire  1 ` clk $end
   $var wire 32 # current_PC [31:0] $end
   $var wire 32 & imm [31:0] $end
   $var wire 32 ' imm_shifted [31:0] $end
   $var wire 32 % instruction [31:0] $end
   $var wire 32 _ jalr_target [31:0] $end
   $var wire 32 $! memData [31:0] $end
   $var wire  1 S memRead $end
   $var wire  1 , memWrite $end
   $var wire  2 * memtoReg [1:0] $end
   $var wire 32 V next_PC [31:0] $end
   $var wire 32 b r[0] [31:0] $end
   $var wire 32 l r[10] [31:0] $end
   $var wire 32 m r[11] [31:0] $end
   $var wire 32 n r[12] [31:0] $end
   $var wire 32 o r[13] [31:0] $end
   $var wire 32 p r[14] [31:0] $end
   $var wire 32 q r[15] [31:0] $end
   $var wire 32 r r[16] [31:0] $end
   $var wire 32 s r[17] [31:0] $end
   $var wire 32 t r[18] [31:0] $end
   $var wire 32 u r[19] [31:0] $end
   $var wire 32 c r[1] [31:0] $end
   $var wire 32 v r[20] [31:0] $end
   $var wire 32 w r[21] [31:0] $end
   $var wire 32 x r[22] [31:0] $end
   $var wire 32 y r[23] [31:0] $end
   $var wire 32 z r[24] [31:0] $end
   $var wire 32 { r[25] [31:0] $end
   $var wire 32 | r[26] [31:0] $end
   $var wire 32 } r[27] [31:0] $end
   $var wire 32 ~ r[28] [31:0] $end
   $var wire 32 !! r[29] [31:0] $end
   $var wire 32 d r[2] [31:0] $end
   $var wire 32 "! r[30] [31:0] $end
   $var wire 32 #! r[31] [31:0] $end
   $var wire 32 e r[3] [31:0] $end
   $var wire 32 f r[4] [31:0] $end
   $var wire 32 g r[5] [31:0] $end
   $var wire 32 h r[6] [31:0] $end
   $var wire 32 i r[7] [31:0] $end
   $var wire 32 j r[8] [31:0] $end
   $var wire 32 k r[9] [31:0] $end
   $var wire 32 W readData1 [31:0] $end
   $var wire 32 X readData2 [31:0] $end
   $var wire  1 T regWrite $end
   $var wire  1 a start $end
   $var wire 32 %! writeBackData [31:0] $end
   $var wire  1 ^ zero_flag $end
   $scope module m_ALU $end
    $var wire 32 W A [31:0] $end
    $var wire 32 Z ALUOut [31:0] $end
    $var wire  4 ) ALUctl [3:0] $end
    $var wire 32 Y B [31:0] $end
    $var wire  1 ^ zero $end
   $upscope $end
   $scope module m_ALUCtrl $end
    $var wire  4 ) ALUCtl [3:0] $end
    $var wire  2 + ALUOp [1:0] $end
    $var wire  3 / funct3 [2:0] $end
    $var wire  1 . funct7 $end
   $upscope $end
   $scope module m_Adder_1 $end
    $var wire 32 # a [31:0] $end
    $var wire 32 &! b [31:0] $end
    $var wire 32 $ sum [31:0] $end
   $upscope $end
   $scope module m_Adder_2 $end
    $var wire 32 # a [31:0] $end
    $var wire 32 ' b [31:0] $end
    $var wire 32 ( sum [31:0] $end
   $upscope $end
   $scope module m_BranchComp $end
    $var wire 32 W A [31:0] $end
    $var wire 32 X B [31:0] $end
    $var wire  1 \ BrEq $end
    $var wire  1 ] BrLT $end
   $upscope $end
   $scope module m_Control $end
    $var wire  2 + ALUOp [1:0] $end
    $var wire  1 - ALUSrc $end
    $var wire  1 \ BrEq $end
    $var wire  1 ] BrLT $end
    $var wire  2 [ PCSel [1:0] $end
    $var wire  3 / funct3 [2:0] $end
    $var wire  1 S memRead $end
    $var wire  1 , memWrite $end
    $var wire  2 * memtoReg [1:0] $end
    $var wire  7 0 opcode [6:0] $end
    $var wire  1 T regWrite $end
   $upscope $end
   $scope module m_DataMemory $end
    $var wire 32 Z address [31:0] $end
    $var wire  1 ` clk $end
    $var wire  1 S memRead $end
    $var wire  1 , memWrite $end
    $var wire 32 $! readData [31:0] $end
    $var wire  1 a rst $end
    $var wire 32 X writeData [31:0] $end
   $upscope $end
   $scope module m_ImmGen $end
    $var wire 32 & imm [31:0] $end
    $var wire 32 % inst [31:0] $end
    $var wire  7 0 opcode [6:0] $end
   $upscope $end
   $scope module m_InstMem $end
    $var wire 32 % inst [31:0] $end
    $var wire 32 # readAddr [31:0] $end
   $upscope $end
   $scope module m_Mux_ALU $end
    $var wire 32 Y out [31:0] $end
    $var wire 32 X s0 [31:0] $end
    $var wire 32 & s1 [31:0] $end
    $var wire  1 - sel $end
    $var wire 32 '! size [31:0] $end
   $upscope $end
   $scope module m_Mux_PC $end
    $var wire 32 V out [31:0] $end
    $var wire 32 $ s0 [31:0] $end
    $var wire 32 ( s1 [31:0] $end
    $var wire 32 _ s2 [31:0] $end
    $var wire  2 [ sel [1:0] $end
    $var wire 32 '! size [31:0] $end
   $upscope $end
   $scope module m_Mux_WriteData $end
    $var wire 32 %! out [31:0] $end
    $var wire 32 Z s0 [31:0] $end
    $var wire 32 $! s1 [31:0] $end
    $var wire 32 $ s2 [31:0] $end
    $var wire  2 * sel [1:0] $end
    $var wire 32 '! size [31:0] $end
   $upscope $end
   $scope module m_PC $end
    $var wire  1 ` clk $end
    $var wire 32 V pc_i [31:0] $end
    $var wire 32 # pc_o [31:0] $end
    $var wire  1 a rst $end
   $upscope $end
   $scope module m_Register $end
    $var wire  1 ` clk $end
    $var wire 32 W readData1 [31:0] $end
    $var wire 32 X readData2 [31:0] $end
    $var wire  5 1 readReg1 [4:0] $end
    $var wire  5 2 readReg2 [4:0] $end
    $var wire  1 T regWrite $end
    $var wire 32 3 regs[0] [31:0] $end
    $var wire 32 = regs[10] [31:0] $end
    $var wire 32 > regs[11] [31:0] $end
    $var wire 32 ? regs[12] [31:0] $end
    $var wire 32 @ regs[13] [31:0] $end
    $var wire 32 A regs[14] [31:0] $end
    $var wire 32 B regs[15] [31:0] $end
    $var wire 32 C regs[16] [31:0] $end
    $var wire 32 D regs[17] [31:0] $end
    $var wire 32 E regs[18] [31:0] $end
    $var wire 32 F regs[19] [31:0] $end
    $var wire 32 4 regs[1] [31:0] $end
    $var wire 32 G regs[20] [31:0] $end
    $var wire 32 H regs[21] [31:0] $end
    $var wire 32 I regs[22] [31:0] $end
    $var wire 32 J regs[23] [31:0] $end
    $var wire 32 K regs[24] [31:0] $end
    $var wire 32 L regs[25] [31:0] $end
    $var wire 32 M regs[26] [31:0] $end
    $var wire 32 N regs[27] [31:0] $end
    $var wire 32 O regs[28] [31:0] $end
    $var wire 32 P regs[29] [31:0] $end
    $var wire 32 5 regs[2] [31:0] $end
    $var wire 32 Q regs[30] [31:0] $end
    $var wire 32 R regs[31] [31:0] $end
    $var wire 32 6 regs[3] [31:0] $end
    $var wire 32 7 regs[4] [31:0] $end
    $var wire 32 8 regs[5] [31:0] $end
    $var wire 32 9 regs[6] [31:0] $end
    $var wire 32 : regs[7] [31:0] $end
    $var wire 32 ; regs[8] [31:0] $end
    $var wire 32 < regs[9] [31:0] $end
    $var wire  1 a rst $end
    $var wire 32 %! writeData [31:0] $end
    $var wire  5 U writeReg [4:0] $end
   $upscope $end
   $scope module m_ShiftLeftOne $end
    $var wire 32 & i [31:0] $end
    $var wire 32 ' o [31:0] $end
   $upscope $end
  $upscope $end
 $upscope $end
$enddefinitions $end


#0
b00000000000000000000000000000000 #
b00000000000000000000000000000100 $
b00000000010000000000011000010011 %
b00000000000000000000000000000100 &
b00000000000000000000000000001000 '
b00000000000000000000000000001000 (
b0010 )
b00 *
b11 +
0,
1-
0.
b000 /
b0010011 0
b00000 1
b00100 2
b00000000000000000000000000000000 3
b00000000000000000000000000000000 4
b00000000000000000000000000000000 5
b00000000000000000000000000000000 6
b00000000000000000000000000000000 7
b00000000000000000000000000000000 8
b00000000000000000000000000000000 9
b00000000000000000000000000000000 :
b00000000000000000000000000000000 ;
b00000000000000000000000000000000 <
b00000000000000000000000000000000 =
b00000000000000000000000000000000 >
b00000000000000000000000000000000 ?
b00000000000000000000000000000000 @
b00000000000000000000000000000000 A
b00000000000000000000000000000000 B
b00000000000000000000000000000000 C
b00000000000000000000000000000000 D
b00000000000000000000000000000000 E
b00000000000000000000000000000000 F
b00000000000000000000000000000000 G
b00000000000000000000000000000000 H
b00000000000000000000000000000000 I
b00000000000000000000000000000000 J
b00000000000000000000000000000000 K
b00000000000000000000000000000000 L
b00000000000000000000000000000000 M
b00000000000000000000000000000000 N
b00000000000000000000000000000000 O
b00000000000000000000000000000000 P
b00000000000000000000000000000000 Q
b00000000000000000000000000000000 R
0S
1T
b01100 U
b00000000000000000000000000000100 V
b00000000000000000000000000000000 W
b00000000000000000000000000000000 X
b00000000000000000000000000000100 Y
b00000000000000000000000000000100 Z
b00 [
1\
0]
0^
b00000000000000000000000000000100 _
0`
1a
b00000000000000000000000000000000 b
b00000000000000000000000000000000 c
b00000000000000000000000000000000 d
b00000000000000000000000000000000 e
b00000000000000000000000000000000 f
b00000000000000000000000000000000 g
b00000000000000000000000000000000 h
b00000000000000000000000000000000 i
b00000000000000000000000000000000 j
b00000000000000000000000000000000 k
b00000000000000000000000000000000 l
b00000000000000000000000000000000 m
b00000000000000000000000000000000 n
b00000000000000000000000000000000 o
b00000000000000000000000000000000 p
b00000000000000000000000000000000 q
b00000000000000000000000000000000 r
b00000000000000000000000000000000 s
b00000000000000000000000000000000 t
b00000000000000000000000000000000 u
b00000000000000000000000000000000 v
b00000000000000000000000000000000 w
b00000000000000000000000000000000 x
b00000000000000000000000000000000 y
b00000000000000000000000000000000 z
b00000000000000000000000000000000 {
b00000000000000000000000000000000 |
b00000000000000000000000000000000 }
b00000000000000000000000000000000 ~
b00000000000000000000000000000000 !!
b00000000000000000000000000000000 "!
b00000000000000000000000000000000 #!
b00000000000000000000000000000000 $!
b00000000000000000000000000000100 %!
b00000000000000000000000000000100 &!
b00000000000000000000000000100000 '!
#1
b00000000000000000000000010000000 5
1`
0a
b00000000000000000000000010000000 d
#2
b00000000000000000000000000000100 ?
0`
1a
b00000000000000000000000000000100 n
#3
b00000000000000000000000000000100 #
b00000000000000000000000000001000 $
b00000000110000000000000011101111 %
b00000000000000000000000000000110 &
b00000000000000000000000000001100 '
b00000000000000000000000000010000 (
b10 *
b00 +
0-
b1101111 0
b01100 2
b00001 U
b00000000000000000000000000010000 V
b00000000000000000000000000000100 X
b01 [
0\
1]
1`
b00000000000000000000000000001000 %!
#4
b00000000000000000000000000001000 4
0`
b00000000000000000000000000001000 c
#5
b00000000000000000000000000010000 #
b00000000000000000000000000010100 $
b11111111010000010000000100010011 %
b11111111111111111111111111110100 &
b11111111111111111111111111101000 '
b11111111111111111111111111111000 (
b00 *
b11 +
1-
1.
b0010011 0
b00010 1
b10100 2
b00010 U
b00000000000000000000000000010100 V
b00000000000000000000000010000000 W
b00000000000000000000000000000000 X
b11111111111111111111111111110100 Y
b00000000000000000000000001110100 Z
b00 [
0]
b00000000000000000000000001110100 _
1`
b00000000000000000000000001110100 %!
#6
b00000000000000000000000001110100 5
b00000000000000000000000001110100 W
b00000000000000000000000001101000 Z
b00000000000000000000000001101000 _
0`
b00000000000000000000000001110100 d
b00000000000000000000000001101000 %!
#7
b00000000000000000000000000010100 #
b00000000000000000000000000011000 $
b00000000000100010010010000100011 %
b00000000000000000000000000001000 &
b00000000000000000000000000010000 '
b00000000000000000000000000100100 (
b00 +
1,
0.
b010 /
b0100011 0
b00001 2
0T
b01000 U
b00000000000000000000000000011000 V
b00000000000000000000000000001000 X
b00000000000000000000000000001000 Y
b00000000000000000000000001111100 Z
b00000000000000000000000001111100 _
1`
b00000000000000000000000001111100 %!
#8
0`
#9
b00000000000000000000000000011000 #
b00000000000000000000000000011100 $
b00000000100000010010001000100011 %
b00000000000000000000000000000100 &
b00000000000000000000000000001000 '
b00000000000000000000000000100000 (
b01000 2
b00100 U
b00000000000000000000000000011100 V
b00000000000000000000000000000000 X
b00000000000000000000000000000100 Y
b00000000000000000000000001111000 Z
b00000000000000000000000001111000 _
1`
b00000000000000000000000001111000 %!
#10
0`
#11
b00000000000000000000000000011100 #
b00000000000000000000000000100000 $
b00000000000000000000010100010011 %
b00000000000000000000000000000000 &
b00000000000000000000000000000000 '
b00000000000000000000000000011100 (
b11 +
0,
b000 /
b0010011 0
b00000 1
b00000 2
1T
b01010 U
b00000000000000000000000000100000 V
b00000000000000000000000000000000 W
b00000000000000000000000000000000 Y
b00000000000000000000000000000000 Z
1\
1^
b00000000000000000000000000000000 _
1`
b00000000000000000000000000000000 %!
#12
0`
#13
b00000000000000000000000000100000 #
b00000000000000000000000000100100 $
b00000010000001100000011001100011 %
b00000000000000000000000000010110 &
b00000000000000000000000000101100 '
b00000000000000000000000001001100 (
b00 +
0-
b1100011 0
b01100 1
0T
b01100 U
b00000000000000000000000000100100 V
b00000000000000000000000000000100 W
b00000000000000000000000000000100 Z
0\
0^
b00000000000000000000000000000100 _
1`
b00000000000000000000000000000100 %!
#14
0`
#15
b00000000000000000000000000100100 #
b00000000000000000000000000101000 $
b00000000000101010000010100010011 %
b00000000000000000000000000000001 &
b00000000000000000000000000000010 '
b00000000000000000000000000100110 (
b11 +
1-
b0010011 0
b01010 1
b00001 2
1T
b01010 U
b00000000000000000000000000101000 V
b00000000000000000000000000000000 W
b00000000000000000000000000001000 X
b00000000000000000000000000000001 Y
b00000000000000000000000000000001 Z
1]
b00000000000000000000000000000000 _
1`
b00000000000000000000000000000001 %!
#16
b00000000000000000000000000000001 =
b00000000000000000000000000000001 W
b00000000000000000000000000000010 Z
b00000000000000000000000000000010 _
0`
b00000000000000000000000000000001 l
b00000000000000000000000000000010 %!
#17
b00000000000000000000000000101000 #
b00000000000000000000000000101100 $
b00000010101001100000001001100011 %
b00000000000000000000000000010010 &
b00000000000000000000000000100100 '
b00000000000000000000000001001100 (
b00 +
0-
b1100011 0
b01100 1
b01010 2
0T
b00100 U
b00000000000000000000000000101100 V
b00000000000000000000000000000100 W
b00000000000000000000000000000001 X
b00000000000000000000000000000101 Z
0]
b00000000000000000000000000000100 _
1`
b00000000000000000000000000000101 %!
#18
0`
#19
b00000000000000000000000000101100 #
b00000000000000000000000000110000 $
b11111111111101100000011000010011 %
b11111111111111111111111111111111 &
b11111111111111111111111111111110 '
b00000000000000000000000000101010 (
b11 +
1-
1.
b0010011 0
b11111 2
1T
b01100 U
b00000000000000000000000000110000 V
b00000000000000000000000000000000 X
b11111111111111111111111111111111 Y
b00000000000000000000000000000011 Z
b00000000000000000000000000000010 _
1`
b00000000000000000000000000000011 %!
#20
b00000000000000000000000000000011 ?
b00000000000000000000000000000011 W
b00000000000000000000000000000010 Z
0`
b00000000000000000000000000000011 n
b00000000000000000000000000000010 %!
#21
b00000000000000000000000000110000 #
b00000000000000000000000000110100 $
b00000000110000010010000000100011 %
b00000000000000000000000000000000 &
b00000000000000000000000000000000 '
b00000000000000000000000000110000 (
b00 +
1,
0.
b010 /
b0100011 0
b00010 1
b01100 2
0T
b00000 U
b00000000000000000000000000110100 V
b00000000000000000000000001110100 W
b00000000000000000000000000000011 X
b00000000000000000000000000000000 Y
b00000000000000000000000001110100 Z
b00000000000000000000000001110100 _
1`
b00000000000000000000000001110100 %!
#22
0`
#23
b00000000000000000000000000110100 #
b00000000000000000000000000111000 $
b11111101110111111111000011101111 %
b11111111111111111111101111101110 &
b11111111111111111111011111011100 '
b11111111111111111111100000010000 (
b10 *
0,
0-
1.
b111 /
b1101111 0
b11111 1
b11101 2
1T
b00001 U
b11111111111111111111100000010000 V
b00000000000000000000000000000000 W
b00000000000000000000000000000000 X
b00000000000000000000000000000000 Z
b01 [
1\
1^
b00000000000000000000000000000000 _
1`
b00000000000000000000000000111000 %!
#24
b00000000000000000000000000111000 4
0`
b00000000000000000000000000111000 c
#25
b11111111111111111111100000010000 #
b11111111111111111111100000010100 $
b00000000000000000000000000000000 %
b00000000000000000000000000000000 &
b00000000000000000000000000000000 '
b00 *
0.
b000 /
b0000000 0
b00000 1
b00000 2
0T
b00000 U
b11111111111111111111100000010100 V
b00 [
1`
b00000000000000000000000000000000 %!
#26
0`
#27
b11111111111111111111100000010100 #
b11111111111111111111100000011000 $
b11111111111111111111100000010100 (
b11111111111111111111100000011000 V
1`
#28
0`
#29
b11111111111111111111100000011000 #
b11111111111111111111100000011100 $
b11111111111111111111100000011000 (
b11111111111111111111100000011100 V
1`
#30
0`
#31
b11111111111111111111100000011100 #
b11111111111111111111100000100000 $
b11111111111111111111100000011100 (
b11111111111111111111100000100000 V
1`
#32
0`
#33
b11111111111111111111100000100000 #
b11111111111111111111100000100100 $
b11111111111111111111100000100000 (
b11111111111111111111100000100100 V
1`
#34
0`
#35
b11111111111111111111100000100100 #
b11111111111111111111100000101000 $
b11111111111111111111100000100100 (
b11111111111111111111100000101000 V
1`
#36
0`
#37
b11111111111111111111100000101000 #
b11111111111111111111100000101100 $
b11111111111111111111100000101000 (
b11111111111111111111100000101100 V
1`
#38
0`
#39
b11111111111111111111100000101100 #
b11111111111111111111100000110000 $
b11111111111111111111100000101100 (
b11111111111111111111100000110000 V
1`
#40
0`
#41
b11111111111111111111100000110000 #
b11111111111111111111100000110100 $
b11111111111111111111100000110000 (
b11111111111111111111100000110100 V
1`
#42
0`
#43
b11111111111111111111100000110100 #
b11111111111111111111100000111000 $
b11111111111111111111100000110100 (
b11111111111111111111100000111000 V
1`
#44
0`
#45
b11111111111111111111100000111000 #
b11111111111111111111100000111100 $
b11111111111111111111100000111000 (
b11111111111111111111100000111100 V
1`
#46
0`
#47
b11111111111111111111100000111100 #
b11111111111111111111100001000000 $
b11111111111111111111100000111100 (
b11111111111111111111100001000000 V
1`
#48
0`
#49
b11111111111111111111100001000000 #
b11111111111111111111100001000100 $
b11111111111111111111100001000000 (
b11111111111111111111100001000100 V
1`
#50
0`
#51
b11111111111111111111100001000100 #
b11111111111111111111100001001000 $
b11111111111111111111100001000100 (
b11111111111111111111100001001000 V
1`
#52
0`
#53
b11111111111111111111100001001000 #
b11111111111111111111100001001100 $
b11111111111111111111100001001000 (
b11111111111111111111100001001100 V
1`
#54
0`
#55
b11111111111111111111100001001100 #
b11111111111111111111100001010000 $
b11111111111111111111100001001100 (
b11111111111111111111100001010000 V
1`
#56
0`
#57
b11111111111111111111100001010000 #
b11111111111111111111100001010100 $
b11111111111111111111100001010000 (
b11111111111111111111100001010100 V
1`
#58
0`
#59
b11111111111111111111100001010100 #
b11111111111111111111100001011000 $
b11111111111111111111100001010100 (
b11111111111111111111100001011000 V
1`
#60
0`
#61
b11111111111111111111100001011000 #
b11111111111111111111100001011100 $
b11111111111111111111100001011000 (
b11111111111111111111100001011100 V
1`
#62
0`
#63
b11111111111111111111100001011100 #
b11111111111111111111100001100000 $
b11111111111111111111100001011100 (
b11111111111111111111100001100000 V
1`
#64
0`
#65
b11111111111111111111100001100000 #
b11111111111111111111100001100100 $
b11111111111111111111100001100000 (
b11111111111111111111100001100100 V
1`
#66
0`
#67
b11111111111111111111100001100100 #
b11111111111111111111100001101000 $
b11111111111111111111100001100100 (
b11111111111111111111100001101000 V
1`
#68
0`
#69
b11111111111111111111100001101000 #
b11111111111111111111100001101100 $
b11111111111111111111100001101000 (
b11111111111111111111100001101100 V
1`
#70
0`
#71
b11111111111111111111100001101100 #
b11111111111111111111100001110000 $
b11111111111111111111100001101100 (
b11111111111111111111100001110000 V
1`
#72
0`
#73
b11111111111111111111100001110000 #
b11111111111111111111100001110100 $
b11111111111111111111100001110000 (
b11111111111111111111100001110100 V
1`
#74
0`
#75
b11111111111111111111100001110100 #
b11111111111111111111100001111000 $
b11111111111111111111100001110100 (
b11111111111111111111100001111000 V
1`
#76
0`
#77
b11111111111111111111100001111000 #
b11111111111111111111100001111100 $
b11111111111111111111100001111000 (
b11111111111111111111100001111100 V
1`
#78
0`
#79
b11111111111111111111100001111100 #
b11111111111111111111100010000000 $
b11111111111111111111100001111100 (
b11111111111111111111100010000000 V
1`
#80
0`
#81
b11111111111111111111100010000000 #
b11111111111111111111100010000100 $
b11111111111111111111100010000000 (
b11111111111111111111100010000100 V
1`
#82
0`
#83
b11111111111111111111100010000100 #
b11111111111111111111100010001000 $
b11111111111111111111100010000100 (
b11111111111111111111100010001000 V
1`
#84
0`
#85
b11111111111111111111100010001000 #
b11111111111111111111100010001100 $
b11111111111111111111100010001000 (
b11111111111111111111100010001100 V
1`
#86
0`
#87
b11111111111111111111100010001100 #
b11111111111111111111100010010000 $
b11111111111111111111100010001100 (
b11111111111111111111100010010000 V
1`
#88
0`
#89
b11111111111111111111100010010000 #
b11111111111111111111100010010100 $
b11111111111111111111100010010000 (
b11111111111111111111100010010100 V
1`
#90
0`
#91
b11111111111111111111100010010100 #
b11111111111111111111100010011000 $
b11111111111111111111100010010100 (
b11111111111111111111100010011000 V
1`
#92
0`
#93
b11111111111111111111100010011000 #
b11111111111111111111100010011100 $
b11111111111111111111100010011000 (
b11111111111111111111100010011100 V
1`
#94
0`
#95
b11111111111111111111100010011100 #
b11111111111111111111100010100000 $
b11111111111111111111100010011100 (
b11111111111111111111100010100000 V
1`
#96
0`
#97
b11111111111111111111100010100000 #
b11111111111111111111100010100100 $
b11111111111111111111100010100000 (
b11111111111111111111100010100100 V
1`
#98
0`
#99
b11111111111111111111100010100100 #
b11111111111111111111100010101000 $
b11111111111111111111100010100100 (
b11111111111111111111100010101000 V
1`
#100
0`
#101
b11111111111111111111100010101000 #
b11111111111111111111100010101100 $
b11111111111111111111100010101000 (
b11111111111111111111100010101100 V
1`
#102
0`
#103
b11111111111111111111100010101100 #
b11111111111111111111100010110000 $
b11111111111111111111100010101100 (
b11111111111111111111100010110000 V
1`
#104
0`
#105
b11111111111111111111100010110000 #
b11111111111111111111100010110100 $
b11111111111111111111100010110000 (
b11111111111111111111100010110100 V
1`
#106
0`
#107
b11111111111111111111100010110100 #
b11111111111111111111100010111000 $
b11111111111111111111100010110100 (
b11111111111111111111100010111000 V
1`
#108
0`
#109
b11111111111111111111100010111000 #
b11111111111111111111100010111100 $
b11111111111111111111100010111000 (
b11111111111111111111100010111100 V
1`
#110
0`
#111
b11111111111111111111100010111100 #
b11111111111111111111100011000000 $
b11111111111111111111100010111100 (
b11111111111111111111100011000000 V
1`
#112
0`
#113
b11111111111111111111100011000000 #
b11111111111111111111100011000100 $
b11111111111111111111100011000000 (
b11111111111111111111100011000100 V
1`
#114
0`
#115
b11111111111111111111100011000100 #
b11111111111111111111100011001000 $
b11111111111111111111100011000100 (
b11111111111111111111100011001000 V
1`
#116
0`
#117
b11111111111111111111100011001000 #
b11111111111111111111100011001100 $
b11111111111111111111100011001000 (
b11111111111111111111100011001100 V
1`
#118
0`
#119
b11111111111111111111100011001100 #
b11111111111111111111100011010000 $
b11111111111111111111100011001100 (
b11111111111111111111100011010000 V
1`
#120
0`
#121
b11111111111111111111100011010000 #
b11111111111111111111100011010100 $
b11111111111111111111100011010000 (
b11111111111111111111100011010100 V
1`
#122
0`
#123
b11111111111111111111100011010100 #
b11111111111111111111100011011000 $
b11111111111111111111100011010100 (
b11111111111111111111100011011000 V
1`
#124
0`
#125
b11111111111111111111100011011000 #
b11111111111111111111100011011100 $
b11111111111111111111100011011000 (
b11111111111111111111100011011100 V
1`
#126
0`
#127
b11111111111111111111100011011100 #
b11111111111111111111100011100000 $
b11111111111111111111100011011100 (
b11111111111111111111100011100000 V
1`
#128
0`
#129
b11111111111111111111100011100000 #
b11111111111111111111100011100100 $
b11111111111111111111100011100000 (
b11111111111111111111100011100100 V
1`
#130
0`
#131
b11111111111111111111100011100100 #
b11111111111111111111100011101000 $
b11111111111111111111100011100100 (
b11111111111111111111100011101000 V
1`
#132
0`
#133
b11111111111111111111100011101000 #
b11111111111111111111100011101100 $
b11111111111111111111100011101000 (
b11111111111111111111100011101100 V
1`
#134
0`
#135
b11111111111111111111100011101100 #
b11111111111111111111100011110000 $
b11111111111111111111100011101100 (
b11111111111111111111100011110000 V
1`
#136
0`
#137
b11111111111111111111100011110000 #
b11111111111111111111100011110100 $
b11111111111111111111100011110000 (
b11111111111111111111100011110100 V
1`
#138
0`
#139
b11111111111111111111100011110100 #
b11111111111111111111100011111000 $
b11111111111111111111100011110100 (
b11111111111111111111100011111000 V
1`
#140
0`
#141
b11111111111111111111100011111000 #
b11111111111111111111100011111100 $
b11111111111111111111100011111000 (
b11111111111111111111100011111100 V
1`
#142
0`
#143
b11111111111111111111100011111100 #
b11111111111111111111100100000000 $
b11111111111111111111100011111100 (
b11111111111111111111100100000000 V
1`
#144
0`
#145
b11111111111111111111100100000000 #
b11111111111111111111100100000100 $
b11111111111111111111100100000000 (
b11111111111111111111100100000100 V
1`
#146
0`
#147
b11111111111111111111100100000100 #
b11111111111111111111100100001000 $
b11111111111111111111100100000100 (
b11111111111111111111100100001000 V
1`
#148
0`
#149
b11111111111111111111100100001000 #
b11111111111111111111100100001100 $
b11111111111111111111100100001000 (
b11111111111111111111100100001100 V
1`
#150
0`
#151
b11111111111111111111100100001100 #
b11111111111111111111100100010000 $
b11111111111111111111100100001100 (
b11111111111111111111100100010000 V
1`
#152
0`
#153
b11111111111111111111100100010000 #
b11111111111111111111100100010100 $
b11111111111111111111100100010000 (
b11111111111111111111100100010100 V
1`
#154
0`
#155
b11111111111111111111100100010100 #
b11111111111111111111100100011000 $
b11111111111111111111100100010100 (
b11111111111111111111100100011000 V
1`
#156
0`
#157
b11111111111111111111100100011000 #
b11111111111111111111100100011100 $
b11111111111111111111100100011000 (
b11111111111111111111100100011100 V
1`
#158
0`
#159
b11111111111111111111100100011100 #
b11111111111111111111100100100000 $
b11111111111111111111100100011100 (
b11111111111111111111100100100000 V
1`
#160
0`
#161
b11111111111111111111100100100000 #
b11111111111111111111100100100100 $
b11111111111111111111100100100000 (
b11111111111111111111100100100100 V
1`
#162
0`
#163
b11111111111111111111100100100100 #
b11111111111111111111100100101000 $
b11111111111111111111100100100100 (
b11111111111111111111100100101000 V
1`
#164
0`
#165
b11111111111111111111100100101000 #
b11111111111111111111100100101100 $
b11111111111111111111100100101000 (
b11111111111111111111100100101100 V
1`
#166
0`
#167
b11111111111111111111100100101100 #
b11111111111111111111100100110000 $
b11111111111111111111100100101100 (
b11111111111111111111100100110000 V
1`
#168
0`
#169
b11111111111111111111100100110000 #
b11111111111111111111100100110100 $
b11111111111111111111100100110000 (
b11111111111111111111100100110100 V
1`
#170
0`
#171
b11111111111111111111100100110100 #
b11111111111111111111100100111000 $
b11111111111111111111100100110100 (
b11111111111111111111100100111000 V
1`
#172
0`
#173
b11111111111111111111100100111000 #
b11111111111111111111100100111100 $
b11111111111111111111100100111000 (
b11111111111111111111100100111100 V
1`
#174
0`
#175
b11111111111111111111100100111100 #
b11111111111111111111100101000000 $
b11111111111111111111100100111100 (
b11111111111111111111100101000000 V
1`
#176
0`
#177
b11111111111111111111100101000000 #
b11111111111111111111100101000100 $
b11111111111111111111100101000000 (
b11111111111111111111100101000100 V
1`
#178
0`
#179
b11111111111111111111100101000100 #
b11111111111111111111100101001000 $
b11111111111111111111100101000100 (
b11111111111111111111100101001000 V
1`
#180
0`
#181
b11111111111111111111100101001000 #
b11111111111111111111100101001100 $
b11111111111111111111100101001000 (
b11111111111111111111100101001100 V
1`
#182
0`
#183
b11111111111111111111100101001100 #
b11111111111111111111100101010000 $
b11111111111111111111100101001100 (
b11111111111111111111100101010000 V
1`
#184
0`
#185
b11111111111111111111100101010000 #
b11111111111111111111100101010100 $
b11111111111111111111100101010000 (
b11111111111111111111100101010100 V
1`
#186
0`
#187
b11111111111111111111100101010100 #
b11111111111111111111100101011000 $
b11111111111111111111100101010100 (
b11111111111111111111100101011000 V
1`
#188
0`
#189
b11111111111111111111100101011000 #
b11111111111111111111100101011100 $
b11111111111111111111100101011000 (
b11111111111111111111100101011100 V
1`
#190
0`
#191
b11111111111111111111100101011100 #
b11111111111111111111100101100000 $
b11111111111111111111100101011100 (
b11111111111111111111100101100000 V
1`
#192
0`
#193
b11111111111111111111100101100000 #
b11111111111111111111100101100100 $
b11111111111111111111100101100000 (
b11111111111111111111100101100100 V
1`
#194
0`
